Customization
…
# import data
spp_range_data <- read_spp_range_data(spp_range_path)

# preview data
## dataset follows the same format as the IUCN Red List spatial data
print(spp_range_data)

## Simple feature collection with 31 features and 26 fields
## Geometry type: MULTIPOLYGON
## Dimension:     XY
## Bounding box:  xmin: -9.497 ymin: 36.006 xmax: 3.318 ymax: 43.793
## Geodetic CRS:  WGS 84
## # A tibble: 31 × 27
##    id_no seasonal presence origin binom…¹ compi…² yrcom…³ citat…⁴ subsp…⁵ subpop
##    <int>    <dbl>    <dbl>  <dbl> <chr>   <chr>     <dbl> <chr>   <chr>   <chr> 
##  1   932        1        1      1 Simulu… Simula…      NA <NA>    <NA>    <NA>  
##  2   932        1        6      6 Simulu… Simula…      NA <NA>    <NA>    <NA>  
##  3   932        1        3      3 Simulu… Simula…      NA <NA>    <NA>    <NA>  
##  4   932        1        3      2 Simulu… Simula…      NA <NA>    <NA>    <NA>  
##  5  3032        1        1      1 Simulu… Simula…      NA <NA>    <NA>    <NA>  
##  6  3032        1        1      2 Simulu… Simula…      NA <NA>    <NA>    <NA>  
##  7  3032        1        3      6 Simulu… Simula…      NA <NA>    <NA>    <NA>  
##  8  3046        1        1      1 Simulu… Simula…      NA <NA>    <NA>    <NA>  
##  9  3046        3        1      1 Simulu… Simula…      NA <NA>    <NA>    <NA>  
## 10  3046        4        1      1 Simulu… Simula…      NA <NA>    <NA>    <NA>  
## # … with 21 more rows, 17 more variables: source <chr>, island <chr>,
## #   tax_comm <chr>, dist_comm <chr>, generalisd <int>, legend <chr>,
## #   kingdom <chr>, phylum <chr>, class <chr>, order_ <chr>, family <chr>,
## #   genus <chr>, category <chr>, marine <chr>, terrestial <chr>,
## #   freshwater <chr>, geometry <MULTIPOLYGON [°]>, and abbreviated variable
## #   names ¹​binomial, ²​compiler, ³​yrcompiled, ⁴​citation, ⁵​subspecies
## # ℹ Use `print(n = ...)` to see more rows, and `colnames()` to see all variable names
…
