…
# import data
spp_range_data <- read_spp_range_data(spp_range_path)

# preview data
## dataset follows the same format as the IUCN Red List spatial data
print(spp_range_data)
```

    ## Simple feature collection with 34 features and 26 fields
    ## Geometry type: MULTIPOLYGON
    ## Dimension:     XY
    ## Bounding box:  xmin: -9.497 ymin: 36.01108 xmax: 3.318 ymax: 43.793
    ## Geodetic CRS:  WGS 84
    ## # A tibble: 34 × 27
    ##    id_no seasonal presence origin binomial          compiler yrcompiled citation
    ##    <int>    <dbl>    <dbl>  <dbl> <chr>             <chr>         <dbl> <chr>   
    ##  1   670        2        1      1 Simulus spp. 670  Simulat…         NA NA      
    ##  2   670        3        1      1 Simulus spp. 670  Simulat…         NA NA      
    ##  3   670        4        1      1 Simulus spp. 670  Simulat…         NA NA      
    ##  4  2072        1        1      1 Simulus spp. 2072 Simulat…         NA NA      
    ##  5  2072        1        4      4 Simulus spp. 2072 Simulat…         NA NA      
    ##  6  2072        1        3      3 Simulus spp. 2072 Simulat…         NA NA      
    ##  7  2072        1        3      5 Simulus spp. 2072 Simulat…         NA NA      
    ##  8  2374        1        1      1 Simulus spp. 2374 Simulat…         NA NA      
    ##  9  2374        1        4      2 Simulus spp. 2374 Simulat…         NA NA      
    ## 10  2374        1        5      2 Simulus spp. 2374 Simulat…         NA NA      
    ## # ℹ 24 more rows
    ## # ℹ 19 more variables: subspecies <chr>, subpop <chr>, source <chr>,
    ## #   island <chr>, tax_comm <chr>, dist_comm <chr>, generalisd <int>,
    ## #   legend <chr>, kingdom <chr>, phylum <chr>, class <chr>, order_ <chr>,
    ## #   family <chr>, genus <chr>, category <chr>, marine <chr>, terrestial <chr>,
    ## #   freshwater <chr>, geometry <MULTIPOLYGON [°]>
…
