Crosswalk data for Jung et al. (2020) (level 2 classification) — crosswalk_jung_lvl2_data • aoh
…
    See also

    A preprocessed version of the habitat classification data can be imported
using get_jung_lvl2_habitat_data().

    Examples

# load data
data(crosswalk_jung_lvl2_data)

# print data
print(crosswalk_jung_lvl2_data)
#> # A tibble: 126 × 2
#>    code  value
#>    <chr> <int>
#>  1 1       100
#>  2 1.1     101
#>  3 1.2     102
#>  4 1.3     103
#>  5 1.4     104
#>  6 1.5     105
#>  7 1.6     106
#>  8 1.7     107
#>  9 1.8     108
#> 10 1.9     109
#> # ℹ 116 more rows
…
