Crosswalk data for CGLS based on Lumbierres et al. (2021) — crosswalk_lumb_cgls_data • aoh
…
    See also

    A preprocessed version of the habitat classification data can be imported
using get_lumb_cgls_habitat_data().

    Examples

# load data
data(crosswalk_lumb_cgls_data)

# print data
print(crosswalk_lumb_cgls_data)
#> # A tibble: 159 × 2
#>    code  value
#>    <chr> <int>
#>  1 1       100
#>  2 1.1     100
#>  3 1.2     100
#>  4 1.3     100
#>  5 1.4     100
#>  6 1.5     100
#>  7 1.6     100
#>  8 1.7     100
#>  9 1.8     100
#> 10 1.9     100
#> # ℹ 149 more rows
…
