…
## See also

A preprocessed version of the habitat classification data can be
imported using
[`get_jung_plvl1_habitat_data()`](https://prioritizr.github.io/aoh/reference/get_jung_plvl1_habitat_data.md).

## Examples

``` r
# load data
data(crosswalk_jung_plvl1_data)

# print data
print(crosswalk_jung_plvl1_data)
#> # A tibble: 126 × 2
#>    code  value
#>    <chr> <int>
#>  1 1       100
#>  2 1.1     100
#>  3 1.2     100
#>  4 1.3     100
#>  5 1.4     100
#>  6 1.5     100
#>  7 1.6     100
#>  8 1.7     100
#>  9 1.8     100
#> 10 1.9     100
#> # ℹ 116 more rows
```
