…
## Source

The data were obtained from
<https://www.iucnredlist.org/resources/threat-classification-scheme>.

## Examples

``` r
# load data
data(iucn_threat_data)

# print data
print(iucn_threat_data)
#> # A tibble: 130 × 2
#>    code  name                                
#>    <chr> <chr>                               
#>  1 1     Residential & commercial development
#>  2 1.1   Housing & urban areas               
#>  3 1.2   Commercial & industrial areas       
#>  4 1.3   Tourism & recreation areas          
#>  5 2     Agriculture & aquaculture           
#>  6 2.1   Annual & perennial non-timber crops 
#>  7 2.1.1 Shifting agriculture                
#>  8 2.1.2 Small-holder farming                
#>  9 2.1.3 Agro-industry farming               
#> 10 2.1.4 Scale Unknown/Unrecorded            
#> # ℹ 120 more rows
```
