…
## Source

The data were obtained from
<https://www.iucnredlist.org/resources/habitat-classification-scheme>.

## Examples

``` r
# load data
data(iucn_habitat_data)

# print data
print(iucn_habitat_data)
#> # A tibble: 126 × 7
#>    code  name       is_terrestrial is_marine is_artificial is_misc is_introduced
#>    <chr> <chr>      <lgl>          <lgl>     <lgl>         <lgl>   <lgl>        
#>  1 1     Forest     TRUE           FALSE     FALSE         FALSE   FALSE        
#>  2 1.1   Forest - … TRUE           FALSE     FALSE         FALSE   FALSE        
#>  3 1.2   Forest - … TRUE           FALSE     FALSE         FALSE   FALSE        
#>  4 1.3   Forest - … TRUE           FALSE     FALSE         FALSE   FALSE        
#>  5 1.4   Forest - … TRUE           FALSE     FALSE         FALSE   FALSE        
#>  6 1.5   Forest - … TRUE           FALSE     FALSE         FALSE   FALSE        
#>  7 1.6   Forest - … TRUE           FALSE     FALSE         FALSE   FALSE        
#>  8 1.7   Forest - … TRUE           FALSE     FALSE         FALSE   FALSE        
#>  9 1.8   Forest - … TRUE           FALSE     FALSE         FALSE   FALSE        
#> 10 1.9   Forest - … TRUE           FALSE     FALSE         FALSE   FALSE        
#> # ℹ 116 more rows
```
