Simulate species data — simulate_spp_data • aoh
…
# preview species habitat preference data
print(x$spp_habitat_data)
#> # A tibble: 21 × 6
#>    id_no code  habitat                        suitability season majorimportance
#>    <int> <chr> <chr>                          <chr>       <chr>  <chr>          
#>  1   799 4.4   Grassland - Temperate          Suitable    Resid… NA             
#>  2   799 14.3  Plantations                    Suitable    Resid… NA             
#>  3   799 14.1  Arable Land                    Suitable    Resid… NA             
#>  4  2102 4.4   Grassland - Temperate          Suitable    Resid… NA             
#>  5  2102 3.4   Shrubland - Temperate          Suitable    Resid… NA             
#>  6  2102 5.15  Wetlands (inland) - Seasonal/… Suitable    Resid… NA             
#>  7  2102 3.4   Shrubland - Temperate          Suitable    Non-b… NA             
#>  8  2102 14.1  Arable Land                    Suitable    Non-b… NA             
#>  9  2102 14.3  Plantations                    Suitable    Non-b… NA             
#> 10  2102 14.3  Plantations                    Suitable    Passa… NA             
#> # ℹ 11 more rows
…
